[gd_scene load_steps=2 format=3]

[ext_resource type="Script" path="res://GuessTheNumber/end_game.gd" id="1_3ap7r"]

[node name="EndGame" type="Label"]
anchors_preset = 15
anchor_right = 1.0
anchor_bottom = 1.0
grow_horizontal = 2
grow_vertical = 2
script = ExtResource("1_3ap7r")
