[gd_resource type="TileSet" load_steps=7 format=3 uid="uid://dvrvvhb126wux"]

[ext_resource type="Texture2D" uid="uid://blxndv73xhr2k" path="res://assets/SonarHunt-TileSheet-2x3_v2.png" id="1_j2uie"]
[ext_resource type="Texture2D" uid="uid://dduexkvghplpi" path="res://assets/SonarHunt-SonarNumbers.png" id="2_6ched"]
[ext_resource type="Texture2D" uid="uid://dq2yo8e8ilvl7" path="res://assets/SonarHunt-X.png" id="3_4l36q"]

[sub_resource type="TileSetAtlasSource" id="TileSetAtlasSource_gdy3c"]
resource_name = "Meeresfelder"
texture = ExtResource("1_j2uie")
texture_region_size = Vector2i(30, 30)
0:0/0 = 0
1:0/0 = 0
0:1/0 = 0
1:1/0 = 0
0:2/0 = 0
1:2/0 = 0

[sub_resource type="TileSetAtlasSource" id="TileSetAtlasSource_ln15t"]
resource_name = "sonar"
texture = ExtResource("2_6ched")
texture_region_size = Vector2i(30, 30)
0:0/0 = 0
0:1/0 = 0
0:2/0 = 0
0:3/0 = 0
0:4/0 = 0
0:5/0 = 0
0:6/0 = 0
0:7/0 = 0
0:8/0 = 0
0:9/0 = 0

[sub_resource type="TileSetAtlasSource" id="TileSetAtlasSource_6wgs2"]
resource_name = "kiste"
texture = ExtResource("3_4l36q")
texture_region_size = Vector2i(30, 30)
0:0/0 = 0

[resource]
tile_size = Vector2i(30, 30)
sources/0 = SubResource("TileSetAtlasSource_gdy3c")
sources/2 = SubResource("TileSetAtlasSource_6wgs2")
sources/1 = SubResource("TileSetAtlasSource_ln15t")
