[gd_resource type="FontVariation" load_steps=2 format=3 uid="uid://2w5sboiclrxf"]

[ext_resource type="FontFile" uid="uid://cnwixb5egiae1" path="res://ressources/Inter-VariableFont_slnt,wght.ttf" id="1_juy54"]

[resource]
base_font = ExtResource("1_juy54")
